{
  "usingComponents": {
    "mp-uploader": "weui-miniprogram/uploader/uploader",
    "mp-cells": "weui-miniprogram/cells/cells",
    "mp-cell": "weui-miniprogram/cell/cell"
  },
  "navigationBarTitleText": "任务详情"
}